cma_week5_solution
…
ℹ Use `spec()` to retrieve the full column specification for this data.
ℹ Specify the column types or set `show_col_types = FALSE` to quiet this message.

# time zone

from <-  as.POSIXct("2015-04-01", tz = "UTC")
to <- as.POSIXct("2015-04-15", tz = "UTC")

wildboar <- wildboar |> filter(DatetimeUTC > from, DatetimeUTC < to) |>
  filter(TierName %in% c("Rosa", "Sabi"))

wildboar

# A tibble: 2,688 × 6
   TierID TierName CollarID DatetimeUTC                E        N
   <chr>  <chr>       <dbl> <dttm>                 <dbl>    <dbl>
 1 002A   Sabi        12275 2015-04-01 00:00:11 2570372. 1205313.
 2 002A   Sabi        12275 2015-04-01 00:15:22 2570309. 1205262.
 3 002A   Sabi        12275 2015-04-01 00:30:11 2570326. 1205248.
 4 002A   Sabi        12275 2015-04-01 00:45:16 2570315. 1205242.
 5 002A   Sabi        12275 2015-04-01 01:00:44 2570323. 1205237.
 6 002A   Sabi        12275 2015-04-01 01:15:17 2570320. 1205247.
 7 002A   Sabi        12275 2015-04-01 01:30:22 2570324. 1205237.
 8 002A   Sabi        12275 2015-04-01 01:45:47 2570307. 1205250.
 9 002A   Sabi        12275 2015-04-01 02:00:17 2570292. 1205262.
10 002A   Sabi        12275 2015-04-01 02:15:12 2570354. 1205297.
# ℹ 2,678 more rows
…
wildboar <- wildboar |> mutate(
  Datetime_round = round_date(DatetimeUTC, "15 minutes")
)

wildboar

# A tibble: 2,688 × 7
   TierID TierName CollarID DatetimeUTC                E        N
   <chr>  <chr>       <dbl> <dttm>                 <dbl>    <dbl>
 1 002A   Sabi        12275 2015-04-01 00:00:11 2570372. 1205313.
 2 002A   Sabi        12275 2015-04-01 00:15:22 2570309. 1205262.
 3 002A   Sabi        12275 2015-04-01 00:30:11 2570326. 1205248.
 4 002A   Sabi        12275 2015-04-01 00:45:16 2570315. 1205242.
 5 002A   Sabi        12275 2015-04-01 01:00:44 2570323. 1205237.
 6 002A   Sabi        12275 2015-04-01 01:15:17 2570320. 1205247.
 7 002A   Sabi        12275 2015-04-01 01:30:22 2570324. 1205237.
 8 002A   Sabi        12275 2015-04-01 01:45:47 2570307. 1205250.
 9 002A   Sabi        12275 2015-04-01 02:00:17 2570292. 1205262.
10 002A   Sabi        12275 2015-04-01 02:15:12 2570354. 1205297.
# ℹ 2,678 more rows
# ℹ 1 more variable: Datetime_round <dttm>

sabi <- filter(wildboar, TierName == "Sabi")
rosa <- filter(wildboar, TierName == "Rosa")

Task 3: Create Join Key

# suffix here: make joined columns more readable
joined <- full_join(sabi, rosa, by = "Datetime_round", suffix = c("_sabi", "_rosa"))
# if distance > 100: true, else false
joined <- joined |> mutate(distance = euclidean_distance(E_sabi, N_sabi, E_rosa, N_rosa), meet = distance < 100)

joined

# A tibble: 1,344 × 15
   TierID_sabi TierName_sabi CollarID_sabi DatetimeUTC_sabi      E_sabi   N_sabi
   <chr>       <chr>                 <dbl> <dttm>                 <dbl>    <dbl>
 1 002A        Sabi                  12275 2015-04-01 00:00:11 2570372. 1205313.
 2 002A        Sabi                  12275 2015-04-01 00:15:22 2570309. 1205262.
 3 002A        Sabi                  12275 2015-04-01 00:30:11 2570326. 1205248.
 4 002A        Sabi                  12275 2015-04-01 00:45:16 2570315. 1205242.
 5 002A        Sabi                  12275 2015-04-01 01:00:44 2570323. 1205237.
 6 002A        Sabi                  12275 2015-04-01 01:15:17 2570320. 1205247.
 7 002A        Sabi                  12275 2015-04-01 01:30:22 2570324. 1205237.
 8 002A        Sabi                  12275 2015-04-01 01:45:47 2570307. 1205250.
 9 002A        Sabi                  12275 2015-04-01 02:00:17 2570292. 1205262.
10 002A        Sabi                  12275 2015-04-01 02:15:12 2570354. 1205297.
# ℹ 1,334 more rows
# ℹ 9 more variables: Datetime_round <dttm>, TierID_rosa <chr>,
#   TierName_rosa <chr>, CollarID_rosa <dbl>, DatetimeUTC_rosa <dttm>,
#   E_rosa <dbl>, N_rosa <dbl>, distance <dbl>, meet <lgl>
…
